{
    "products": [
        {
            "id": 11,
            "productName": "Телефон",
            "price": 50000,
            "amount":2,
            "maxPerPerson":2
        },
        {
            "id": 12,
            "productName": "Телевизор",
            "price": 60000,
            "amount":3,
            "maxPerPerson":1
        },
        {
            "id": 13,
            "productName": "Компьютер",
            "price": 40000,
            "amount":7,
            "maxPerPerson":5
        },
        {
            "id": 151,
            "productName": "Холодильник",
            "price": 45000,
            "amount":3,
            "maxPerPerson":1
        },
        {
            "id": 242,
            "productName": "Планшет",
            "price": 10000,
            "amount":5,
            "maxPerPerson":8
        },
        {
            "id": 244,
            "productName": "Гироскутер",
            "price": 13000,
            "amount":5,
            "maxPerPerson":2
        }
    ]
}